============================================================
  Generated by:           Encounter(R) RTL Compiler RC14.13 - v14.10-s027_1
  Generated on:           Dec 01 2021  04:06:45 pm
  Module:                 Simpler_Cipher_Decryption
  Technology library:     slow_vdd1v0 1.0
  Operating conditions:   PVT_0P9V_125C (balanced_tree)
  Wireload mode:          enclosed
  Area mode:              timing library
============================================================

        Pin             Type      Fanout Load Slew Delay Arrival   
                                         (fF) (ps)  (ps)   (ps)    
-------------------------------------------------------------------
(clock clk)            launch                                  0 R 
CT
  q_reg[0]/CK                                    0             0 R 
  q_reg[0]/Q           DFFQXL          5  2.0   83  +198     198 R 
CT/q[0] 
g6191/B                                               +0     198   
g6191/CO               ADDHX1          1  0.6   28  +149     347 R 
g6188/CI                                              +0     347   
g6188/CO               ADDFX1          1  0.6   39  +181     528 R 
g6182/CI                                              +0     528   
g6182/CO               ADDFX1          1  0.6   39  +186     714 R 
g6175/CI                                              +0     714   
g6175/CO               ADDFX1          1  0.6   39  +186     900 R 
g6166/CI                                              +0     900   
g6166/CO               ADDFX1          2  0.8   43  +188    1088 R 
g6163/B                                               +0    1088   
g6163/Y                CLKXOR2X1       6  1.8   55  +161    1249 R 
g6157/B                                               +0    1249   
g6157/Y                AND2XL          3  1.2   56  +133    1382 R 
g6154/A1                                              +0    1382   
g6154/Y                AOI31X1         4  1.3  190  +192    1574 F 
g11718/A                                              +0    1574   
g11718/Y               INVX1           5  2.0   80  +139    1713 R 
g11510/A                                              +0    1713   
g11510/Y               NAND2X1         6  2.3  160  +151    1864 F 
g11485/B                                              +0    1864   
g11485/Y               XNOR2X1         2  0.6   31  +216    2080 R 
g11462/B                                              +0    2080   
g11462/Y               AND2XL          2  0.4   27  +106    2186 R 
g11435/A                                              +0    2186   
g11435/Y               AND2XL          2  0.4   27  +114    2300 R 
g11416/A                                              +0    2300   
g11416/Y               AND2XL          2  0.6   34  +117    2417 R 
g11385/A                                              +0    2417   
g11385/Y               NAND2X1         2  0.6   80   +74    2491 F 
g11365/A                                              +0    2491   
g11365/Y               NOR2X1          2  0.8   72   +92    2583 R 
g11347/B                                              +0    2583   
g11347/Y               NAND2X1         2  0.8   82   +93    2676 F 
g11299/B                                              +0    2676   
g11299/Y               XNOR2X1         1  0.4   27  +183    2860 R 
g11244/A0                                             +0    2860   
g11244/Y               OAI221X1        1  0.3  148  +179    3039 F 
PT_data_in_reg[6]/D    DFFHQX1                        +0    3039   
PT_data_in_reg[6]/CK   setup                     0  +119    3158 R 
- - - - - - - - - - - - - - - - - - - - - - - - - - - - - - - - - -
(clock clk)            capture                            200000 R 
-------------------------------------------------------------------
Cost Group   : 'clk' (path_group 'clk')
Timing slack :  196842ps 
Start-point  : CT/q_reg[0]/CK
End-point    : PT_data_in_reg[6]/D
