============================================================
  Generated by:           Encounter(R) RTL Compiler RC14.13 - v14.10-s027_1
  Generated on:           Dec 01 2021  04:06:45 pm
  Module:                 Simpler_Cipher_Decryption
  Technology library:     slow_vdd1v0 1.0
  Operating conditions:   PVT_0P9V_125C (balanced_tree)
  Wireload mode:          enclosed
  Area mode:              timing library
============================================================

                                
   Gate    Instances    Area        Library    
-----------------------------------------------
ADDFX1             8     41.040    slow_vdd1v0 
ADDHX1             7     26.334    slow_vdd1v0 
AND2X1             8     10.944    slow_vdd1v0 
AND2X2            16     27.360    slow_vdd1v0 
AND2X4            16     43.776    slow_vdd1v0 
AND2X8            16     71.136    slow_vdd1v0 
AND2XL            14     19.152    slow_vdd1v0 
AO21XL             2      4.788    slow_vdd1v0 
AO22X1             5     13.680    slow_vdd1v0 
AO22XL             2      5.472    slow_vdd1v0 
AOI211XL           2      4.104    slow_vdd1v0 
AOI21X1           14     23.940    slow_vdd1v0 
AOI21XL            3      5.130    slow_vdd1v0 
AOI221X1           5     11.970    slow_vdd1v0 
AOI222X1          16     49.248    slow_vdd1v0 
AOI22X1         3663   7516.476    slow_vdd1v0 
AOI22XL         2048   4202.496    slow_vdd1v0 
AOI2BB1X1          1      2.052    slow_vdd1v0 
AOI31X1            1      2.052    slow_vdd1v0 
AOI32X1            4      9.576    slow_vdd1v0 
CLKINVX12          3     12.312    slow_vdd1v0 
CLKINVX16          4     21.888    slow_vdd1v0 
CLKINVX4           2      3.420    slow_vdd1v0 
CLKXOR2X1          1      2.736    slow_vdd1v0 
DFFHQX1         4125  22572.000    slow_vdd1v0 
DFFQXL            26    142.272    slow_vdd1v0 
DFFX1             16    114.912    slow_vdd1v0 
INVX1            111     75.924    slow_vdd1v0 
INVX2             16     16.416    slow_vdd1v0 
INVX20             4     25.992    slow_vdd1v0 
INVX3             32     43.776    slow_vdd1v0 
MDFFHQX1           2     17.100    slow_vdd1v0 
MX2XL             10     23.940    slow_vdd1v0 
MXI2XL            11     26.334    slow_vdd1v0 
NAND2BX1          41     56.088    slow_vdd1v0 
NAND2X1          205    210.330    slow_vdd1v0 
NAND2XL         1473   1511.298    slow_vdd1v0 
NAND3BX1           1      2.052    slow_vdd1v0 
NAND3BXL           8     13.680    slow_vdd1v0 
NAND3X1            6     10.260    slow_vdd1v0 
NAND4BX1           4      9.576    slow_vdd1v0 
NAND4XL          582    995.220    slow_vdd1v0 
NOR2BX1          122    166.896    slow_vdd1v0 
NOR2X1           891    914.166    slow_vdd1v0 
NOR2XL             3      3.078    slow_vdd1v0 
NOR3BX1            1      2.052    slow_vdd1v0 
NOR3X1            10     17.100    slow_vdd1v0 
NOR4BX1            1      2.394    slow_vdd1v0 
NOR4X1             3      5.130    slow_vdd1v0 
NOR4X2             1      3.420    slow_vdd1v0 
OA21X1             3      6.156    slow_vdd1v0 
OA22X1             1      2.394    slow_vdd1v0 
OAI211X1         750   1282.500    slow_vdd1v0 
OAI21X1           11     18.810    slow_vdd1v0 
OAI221X1          19     45.486    slow_vdd1v0 
OAI222X1           8     21.888    slow_vdd1v0 
OAI22X1           15     30.780    slow_vdd1v0 
OAI2BB1X1       3372   5766.120    slow_vdd1v0 
OAI31X1            3      6.156    slow_vdd1v0 
OAI32X1            3      7.182    slow_vdd1v0 
OR2X1             19     25.992    slow_vdd1v0 
OR2X2              2      3.420    slow_vdd1v0 
OR2XL             11     15.048    slow_vdd1v0 
TIELO              2      2.052    slow_vdd1v0 
XNOR2X1           41     98.154    slow_vdd1v0 
XOR2XL             5     13.680    slow_vdd1v0 
-----------------------------------------------
total          17831  46458.306                


                                      
   Type    Instances    Area   Area % 
--------------------------------------
sequential      4169 22846.284   49.2 
inverter         172   199.728    0.4 
logic          13490 23412.294   50.4 
--------------------------------------
total          17831 46458.306  100.0 

